…
### Using a more fine grained grid
Based on initial (rough) tuning we can define a more fine-grained grid

```r
rf_grid <- grid_regular(
  mtry(range = c(20, 50)),
  min_n(range = c(10, 25)),
  levels = 5
)

rf_grid
```

```
## # A tibble: 25 × 2
##     mtry min_n
##    <int> <int>
##  1    20    10
##  2    27    10
##  3    35    10
##  4    42    10
##  5    50    10
##  6    20    13
##  7    27    13
##  8    35    13
##  9    42    13
## 10    50    13
## # ℹ 15 more rows
```
…
```r
# or
data_tame
```

```
## # A tibble: 144 × 14
##    List  `Substance Name` CASRN DTXSID `Molecular Weight` `OPERA, Boiling Point`
##    <chr> <chr>            <chr> <chr>               <dbl>                  <dbl>
##  1 PFAS  Perfluoro-2-(tr… 9376… DTXSI…               300.                   213.
##  2 PFAS  Potassium perfl… 6027… DTXSI…               488.                   223.
##  3 PFAS  Bis(2-hydroxyet… 7022… DTXSI…               555.                   223.
##  4 PFAS  Potassium perfl… 335-… DTXSI…               500.                   221.
##  5 PFAS  1,1,2,2,3,3,4,4… 647-… DTXSI…               484.                   207.
##  6 PFAS  Perfluorononane… 6825… DTXSI…               550.                   224.
##  7 PFAS  Ammonium perflu… 6825… DTXSI…               367.                   225.
##  8 PFAS  Ammonium perflu… 6825… DTXSI…               467.                   223.
##  9 PFAS  Sodium nonafluo… 6045… DTXSI…               322.                   211.
## 10 PFAS  2H-Perfluoropro… 357-… DTXSI…               232.                   202.
## # ℹ 134 more rows
## # ℹ 8 more variables: `OPERA, Henry's Law Constant` <dbl>,
## #   `OPERA, Melting Point` <dbl>,
## #   `OPERA, Negative Log of Acid Dissociation Constant` <dbl>,
## #   `OPERA, Octanol-Air Partition Coefficient` <dbl>,
## #   `OPERA, Octanol-Water Distribution Coefficient` <dbl>,
## #   `OPERA, Octanol-Water Partition Coefficient` <dbl>, …
```
…
```
## The following object is masked from 'package:purrr':
## 
##     lift
```

```r
preProcValues <- preProcess(data_tame, method = c("center", "scale"))

data_tame_transformed <- predict(preProcValues, data_tame)
data_tame_transformed
```

```
## # A tibble: 144 × 14
##    List  `Substance Name` CASRN DTXSID `Molecular Weight` `OPERA, Boiling Point`
##    <chr> <chr>            <chr> <chr>               <dbl>                  <dbl>
##  1 PFAS  Perfluoro-2-(tr… 9376… DTXSI…            -1.03                   -0.626
##  2 PFAS  Potassium perfl… 6027… DTXSI…             0.118                  -0.515
##  3 PFAS  Bis(2-hydroxyet… 7022… DTXSI…             0.526                  -0.515
##  4 PFAS  Potassium perfl… 335-… DTXSI…             0.191                  -0.543
##  5 PFAS  1,1,2,2,3,3,4,4… 647-… DTXSI…             0.0931                 -0.694
##  6 PFAS  Perfluorononane… 6825… DTXSI…             0.495                  -0.504
##  7 PFAS  Ammonium perflu… 6825… DTXSI…            -0.619                  -0.494
##  8 PFAS  Ammonium perflu… 6825… DTXSI…            -0.0103                 -0.515
##  9 PFAS  Sodium nonafluo… 6045… DTXSI…            -0.893                  -0.650
## 10 PFAS  2H-Perfluoropro… 357-… DTXSI…            -1.44                   -0.752
## # ℹ 134 more rows
## # ℹ 8 more variables: `OPERA, Henry's Law Constant` <dbl>,
## #   `OPERA, Melting Point` <dbl>,
## #   `OPERA, Negative Log of Acid Dissociation Constant` <dbl>,
## #   `OPERA, Octanol-Air Partition Coefficient` <dbl>,
## #   `OPERA, Octanol-Water Distribution Coefficient` <dbl>,
## #   `OPERA, Octanol-Water Partition Coefficient` <dbl>, …
```
…
```r
## fitting the model
tame_fit <- tame_workflow |>
  fit(data = data_tame_train)

predict(tame_fit, data_tame_test)
```

```
## # A tibble: 36 × 1
##    .pred_class
##    <fct>      
##  1 PFAS       
##  2 PFAS       
##  3 PFAS       
##  4 PFAS       
##  5 PFAS       
##  6 PFAS       
##  7 PFAS       
##  8 PFAS       
##  9 PFAS       
## 10 PFAS       
## # ℹ 26 more rows
```

```r
predict(tame_fit, data_tame_test, type = "prob")
```

```
## # A tibble: 36 × 2
##    .pred_PFAS .pred_Statins
##         <dbl>         <dbl>
##  1      0.998       0.002  
##  2      1           0      
##  3      0.981       0.0187 
##  4      0.997       0.00326
##  5      0.994       0.00630
##  6      1           0      
##  7      0.997       0.0026 
##  8      1           0      
##  9      0.996       0.00411
## 10      0.998       0.0024 
## # ℹ 26 more rows
```

```r
## augment
tame_aug <- 
  augment(tame_fit, data_tame_test, .pred_PFAS, .pred_Statins)

## The data look like: 
tame_aug %>%
  select(class, .pred_class, .pred_PFAS, .pred_Statins)
```

```
## # A tibble: 36 × 4
##    class .pred_class .pred_PFAS .pred_Statins
##    <fct> <fct>            <dbl>         <dbl>
##  1 PFAS  PFAS             0.998       0.002  
##  2 PFAS  PFAS             1           0      
##  3 PFAS  PFAS             0.981       0.0187 
##  4 PFAS  PFAS             0.997       0.00326
##  5 PFAS  PFAS             0.994       0.00630
##  6 PFAS  PFAS             1           0      
##  7 PFAS  PFAS             0.997       0.0026 
##  8 PFAS  PFAS             1           0      
##  9 PFAS  PFAS             0.996       0.00411
## 10 PFAS  PFAS             0.998       0.0024 
## # ℹ 26 more rows
```
…
```r
classes <- data_qsar$class

#data_qsar_all_numm <- data_qsar |>
#  select(-class)

## look at the data
data_qsar
```

```
## # A tibble: 8,992 × 1,025
##    class    f1    f2    f3    f4    f5    f6    f7    f8    f9   f10   f11   f12
##    <chr> <dbl> <dbl> <dbl> <dbl> <dbl> <dbl> <dbl> <dbl> <dbl> <dbl> <dbl> <dbl>
##  1 nega…     0     0     0     0     0     0     0     0     0     0     1     0
##  2 nega…     0     0     1     0     0     0     0     0     0     0     1     0
##  3 nega…     0     0     0     0     0     0     0     0     0     0     1     0
##  4 nega…     0     0     0     0     0     0     0     1     0     0     1     0
##  5 nega…     0     0     0     0     0     0     0     0     0     0     0     0
##  6 nega…     1     0     0     0     0     0     1     0     0     0     0     0
##  7 nega…     0     0     0     0     0     0     0     0     0     0     1     0
##  8 posi…     0     0     1     0     0     0     0     0     0     0     0     0
##  9 nega…     0     0     0     0     0     0     0     0     0     0     0     0
## 10 nega…     0     0     0     0     0     0     0     0     0     0     0     0
## # ℹ 8,982 more rows
## # ℹ 1,012 more variables: f13 <dbl>, f14 <dbl>, f15 <dbl>, f16 <dbl>,
## #   f17 <dbl>, f18 <dbl>, f19 <dbl>, f20 <dbl>, f21 <dbl>, f22 <dbl>,
## #   f23 <dbl>, f24 <dbl>, f25 <dbl>, f26 <dbl>, f27 <dbl>, f28 <dbl>,
## #   f29 <dbl>, f30 <dbl>, f31 <dbl>, f32 <dbl>, f33 <dbl>, f34 <dbl>,
## #   f35 <dbl>, f36 <dbl>, f37 <dbl>, f38 <dbl>, f39 <dbl>, f40 <dbl>,
## #   f41 <dbl>, f42 <dbl>, f43 <dbl>, f44 <dbl>, f45 <dbl>, f46 <dbl>, …
```
…
pca_estimates <- prep(pca_trans) ## this step takes a bit longer to calculate
pca_estimates$var_info
```

```
## # A tibble: 1,025 × 4
##    variable type      role      source  
##    <chr>    <list>    <chr>     <chr>   
##  1 class    <chr [3]> predictor original
##  2 f1       <chr [2]> predictor original
##  3 f2       <chr [2]> predictor original
##  4 f3       <chr [2]> predictor original
##  5 f4       <chr [2]> predictor original
##  6 f5       <chr [2]> predictor original
##  7 f6       <chr [2]> predictor original
##  8 f7       <chr [2]> predictor original
##  9 f8       <chr [2]> predictor original
## 10 f9       <chr [2]> predictor original
## # ℹ 1,015 more rows
```

```r
juice(pca_estimates) 
```

```
## # A tibble: 8,992 × 3
##    class     UMAP1 UMAP2
##    <fct>     <dbl> <dbl>
##  1 negative -0.848 -3.64
##  2 negative -0.806 -3.49
##  3 negative -0.851 -3.49
##  4 negative -0.901 -3.37
##  5 negative  1.05  -2.19
##  6 negative -0.633 -3.04
##  7 negative  1.21  -3.84
##  8 positive -3.90   4.54
##  9 negative -3.77   4.46
## 10 negative -2.93   6.20
## # ℹ 8,982 more rows
```
…
```r
predict(xgb_fit, qsar_test)
```

```
## # A tibble: 1,799 × 1
##    .pred_class
##    <fct>      
##  1 negative   
##  2 negative   
##  3 negative   
##  4 negative   
##  5 negative   
##  6 positive   
##  7 negative   
##  8 negative   
##  9 negative   
## 10 negative   
## # ℹ 1,789 more rows
```
…
```r
bind_cols(
    predict(xgb_fit, qsar_test),
    predict(xgb_fit, qsar_test, type = "prob"),
    qsar_test[,1]
  ) -> predictions
predictions
```

```
## # A tibble: 1,799 × 4
##    .pred_class .pred_negative .pred_positive class   
##    <fct>                <dbl>          <dbl> <fct>   
##  1 negative             0.999      0.00131   negative
##  2 negative             1.00       0.000378  negative
##  3 negative             0.976      0.0241    negative
##  4 negative             0.983      0.0173    negative
##  5 negative             0.999      0.000697  negative
##  6 positive             0.489      0.511     positive
##  7 negative             0.999      0.00142   negative
##  8 negative             0.622      0.378     negative
##  9 negative             0.937      0.0634    negative
## 10 negative             1.00       0.0000561 negative
## # ℹ 1,789 more rows
```
…
In order to get a structured collection of possible combinations of our hyperperparameters, we can use the `grid_regular()` function. 

```r
tree_grid <- grid_regular(
  trees(),
  tree_depth(),
  finalize(mtry(), select(data_qsar , -class)),
  levels = 3)
tree_grid
```

```
## # A tibble: 27 × 3
##    trees tree_depth  mtry
##    <int>      <int> <int>
##  1     1          1     1
##  2  1000          1     1
##  3  2000          1     1
##  4     1          8     1
##  5  1000          8     1
##  6  2000          8     1
##  7     1         15     1
##  8  1000         15     1
##  9  2000         15     1
## 10     1          1   512
## # ℹ 17 more rows
```
…
