Part 2 – Machine Learning with R | CEC01 - A hands-on introduction to applied artificial intelligence in toxicology (CAAIT)
…
download.file(url = "https://archive.ics.uci.edu/ml/machine-learning-databases/00508/qsar_oral_toxicity.zip", destfile = path)

unzip(zipfile = path, exdir = here::here(
  base_folder, "data")
)

Getting started with {tidymodels}

The fragment below was reproduced from the tidymodels documentation

Build our first model with Tidymodels

urchins

## # A tibble: 72 × 3
##    food_regime initial_volume width
##    <fct>                <dbl> <dbl>
##  1 Initial                3.5 0.01 
##  2 Initial                5   0.02 
##  3 Initial                8   0.061
##  4 Initial               10   0.051
##  5 Initial               13   0.041
##  6 Initial               13   0.061
##  7 Initial               15   0.041
##  8 Initial               15   0.071
##  9 Initial               16   0.092
## 10 Initial               17   0.051
## # ℹ 62 more rows
…
Create features

Now we can start adding steps onto our recipe using the pipe operator. Perhaps it is reasonable for the date of the flight to have an effect on the likelihood of a late arrival. How should the date be encoded into the model? The date column has an R date object so including that column “as is” will mean that the model will convert it to a numeric format equal to the number of days after a reference date:

flight_data %>% 
  distinct(date) %>% 
  mutate(numeric_date = as.numeric(date)) 

## # A tibble: 364 × 2
##   date       numeric_date
##   <date>            <dbl>
## 1 2013-01-01        15706
## 2 2013-01-02        15707
## 3 2013-01-03        15708
## 4 2013-01-04        15709
## 5 2013-01-05        15710
## # ℹ 359 more rows
…
Now, there is a single function that can be used to prepare the recipe and train the model from the resulting predictors: fit()

## this step is the actual fitting and can take a 
flights_fit <- 
  flights_wflow %>% 
  fit(data = train_data)

This object has the finalized recipe and fitted model objects inside. You may want to extract the model or recipe objects from the workflow. To do this, you can use the helper functions extract_fit_parsnip() and extract_recipe(). For example, here we pull the fitted model object then use the broom::tidy() function to get a tidy tibble of model coefficients:

flights_fit %>% 
  extract_fit_parsnip() %>% 
  tidy()

## # A tibble: 158 × 5
##   term                estimate std.error statistic  p.value
##   <chr>                  <dbl>     <dbl>     <dbl>    <dbl>
## 1 (Intercept)          7.26    2.73           2.66 7.75e- 3
## 2 dep_time            -0.00166 0.0000141   -118.   0       
## 3 air_time            -0.0440  0.000563     -78.2  0       
## 4 distance             0.00508 0.00150        3.38 7.13e- 4
## 5 date_USChristmasDay  1.35    0.178          7.59 3.32e-14
## # ℹ 153 more rows
…
Our goal was to predict whether a plane arrives more than 30 minutes late. We have just:

Built the model (lr_mod),

Created a preprocessing recipe (flights_rec),

Bundled the model and recipe (flights_wflow), and

Trained our workflow using a single call to fit().

The next step is to use the trained workflow (flights_fit) to predict with the unseen test data, which we will do with a single call to predict(). The predict() method applies the recipe to the new data, then passes them to the fitted model.

predict(flights_fit, test_data)

## # A tibble: 81,455 × 1
##   .pred_class
##   <fct>      
## 1 on_time    
## 2 on_time    
## 3 on_time    
## 4 on_time    
## 5 on_time    
## # ℹ 81,450 more rows

Because our outcome variable here is a factor, the output from predict() returns the predicted class: late versus on_time. But, let’s say we want the predicted class probabilities for each flight instead. To return those, we can specify type = "prob" when we use predict() or use augment() with the model plus test data to save them together:

flights_aug <- 
  augment(flights_fit, test_data)

# The data look like: 
flights_aug %>%
  select(arr_delay, time_hour, flight, .pred_class, .pred_on_time)

## # A tibble: 81,455 × 5
##   arr_delay time_hour           flight .pred_class .pred_on_time
##   <fct>     <dttm>               <int> <fct>               <dbl>
## 1 on_time   2013-01-01 05:00:00   1545 on_time             0.945
## 2 on_time   2013-01-01 05:00:00   1714 on_time             0.949
## 3 on_time   2013-01-01 06:00:00    507 on_time             0.964
## 4 on_time   2013-01-01 06:00:00   5708 on_time             0.961
## 5 on_time   2013-01-01 06:00:00     71 on_time             0.962
## # ℹ 81,450 more rows
…
data_tame[1:4,1:5]

## # A tibble: 4 × 5
##   List  `Substance Name`                         CASRN DTXSID `Molecular Weight`
##   <chr> <chr>                                    <chr> <chr>               <dbl>
## 1 PFAS  Perfluoro-2-(trifluoromethyl)propanesul… 9376… DTXSI…               300.
## 2 PFAS  Potassium perfluoroheptanesulfonate      6027… DTXSI…               488.
## 3 PFAS  Bis(2-hydroxyethyl)ammonium perfluorohe… 7022… DTXSI…               555.
## 4 PFAS  Potassium perfluoro-p-ethylcyclohexanes… 335-… DTXSI…               500.

# or
data_tame

## # A tibble: 144 × 14
##    List  `Substance Name` CASRN DTXSID `Molecular Weight` `OPERA, Boiling Point`
##    <chr> <chr>            <chr> <chr>               <dbl>                  <dbl>
##  1 PFAS  Perfluoro-2-(tr… 9376… DTXSI…               300.                   213.
##  2 PFAS  Potassium perfl… 6027… DTXSI…               488.                   223.
##  3 PFAS  Bis(2-hydroxyet… 7022… DTXSI…               555.                   223.
##  4 PFAS  Potassium perfl… 335-… DTXSI…               500.                   221.
##  5 PFAS  1,1,2,2,3,3,4,4… 647-… DTXSI…               484.                   207.
##  6 PFAS  Perfluorononane… 6825… DTXSI…               550.                   224.
##  7 PFAS  Ammonium perflu… 6825… DTXSI…               367.                   225.
##  8 PFAS  Ammonium perflu… 6825… DTXSI…               467.                   223.
##  9 PFAS  Sodium nonafluo… 6045… DTXSI…               322.                   211.
## 10 PFAS  2H-Perfluoropro… 357-… DTXSI…               232.                   202.
## # ℹ 134 more rows
## # ℹ 8 more variables: `OPERA, Henry's Law Constant` <dbl>,
## #   `OPERA, Melting Point` <dbl>,
## #   `OPERA, Negative Log of Acid Dissociation Constant` <dbl>,
## #   `OPERA, Octanol-Air Partition Coefficient` <dbl>,
## #   `OPERA, Octanol-Water Distribution Coefficient` <dbl>,
## #   `OPERA, Octanol-Water Partition Coefficient` <dbl>, …
…
## The following objects are masked from 'package:yardstick':
## 
##     precision, recall, sensitivity, specificity

## The following object is masked from 'package:purrr':
## 
##     lift

preProcValues <- preProcess(data_tame, method = c("center", "scale"))

data_tame_transformed <- predict(preProcValues, data_tame)
data_tame_transformed

## # A tibble: 144 × 14
##    List  `Substance Name` CASRN DTXSID `Molecular Weight` `OPERA, Boiling Point`
##    <chr> <chr>            <chr> <chr>               <dbl>                  <dbl>
##  1 PFAS  Perfluoro-2-(tr… 9376… DTXSI…            -1.03                   -0.626
##  2 PFAS  Potassium perfl… 6027… DTXSI…             0.118                  -0.515
##  3 PFAS  Bis(2-hydroxyet… 7022… DTXSI…             0.526                  -0.515
##  4 PFAS  Potassium perfl… 335-… DTXSI…             0.191                  -0.543
##  5 PFAS  1,1,2,2,3,3,4,4… 647-… DTXSI…             0.0931                 -0.694
##  6 PFAS  Perfluorononane… 6825… DTXSI…             0.495                  -0.504
##  7 PFAS  Ammonium perflu… 6825… DTXSI…            -0.619                  -0.494
##  8 PFAS  Ammonium perflu… 6825… DTXSI…            -0.0103                 -0.515
##  9 PFAS  Sodium nonafluo… 6045… DTXSI…            -0.893                  -0.650
## 10 PFAS  2H-Perfluoropro… 357-… DTXSI…            -1.44                   -0.752
## # ℹ 134 more rows
## # ℹ 8 more variables: `OPERA, Henry's Law Constant` <dbl>,
## #   `OPERA, Melting Point` <dbl>,
## #   `OPERA, Negative Log of Acid Dissociation Constant` <dbl>,
## #   `OPERA, Octanol-Air Partition Coefficient` <dbl>,
## #   `OPERA, Octanol-Water Distribution Coefficient` <dbl>,
## #   `OPERA, Octanol-Water Partition Coefficient` <dbl>, …
…
## In terms of feature engineering, there seems to be no need to do this upfront. We could get the SMILES for each compound from a database, and calculate fingerprints. In a later part of this lesson we will revisit this option.

tame_workflow <- workflow() |>
  add_model(tame_mod) |>
  add_recipe(tame_rec)

## fitting the model
tame_fit <- tame_workflow |>
  fit(data = data_tame_train)

predict(tame_fit, data_tame_test)

## # A tibble: 36 × 1
##    .pred_class
##    <fct>      
##  1 PFAS       
##  2 PFAS       
##  3 PFAS       
##  4 PFAS       
##  5 PFAS       
##  6 PFAS       
##  7 PFAS       
##  8 PFAS       
##  9 PFAS       
## 10 PFAS       
## # ℹ 26 more rows

predict(tame_fit, data_tame_test, type = "prob")

## # A tibble: 36 × 2
##    .pred_PFAS .pred_Statins
##         <dbl>         <dbl>
##  1      1          0       
##  2      1          0       
##  3      0.999      0.001   
##  4      0.994      0.00608 
##  5      1          0       
##  6      0.999      0.001   
##  7      1          0       
##  8      0.999      0.000857
##  9      1          0       
## 10      1          0       
## # ℹ 26 more rows

## augment
tame_aug <- 
  augment(tame_fit, data_tame_test, .pred_PFAS, .pred_Statins)

## The data look like: 
tame_aug %>%
  select(class, .pred_class, .pred_PFAS, .pred_Statins)

## # A tibble: 36 × 4
##    class .pred_class .pred_PFAS .pred_Statins
##    <fct> <fct>            <dbl>         <dbl>
##  1 PFAS  PFAS             1          0       
##  2 PFAS  PFAS             1          0       
##  3 PFAS  PFAS             0.999      0.001   
##  4 PFAS  PFAS             0.994      0.00608 
##  5 PFAS  PFAS             1          0       
##  6 PFAS  PFAS             0.999      0.001   
##  7 PFAS  PFAS             1          0       
##  8 PFAS  PFAS             0.999      0.000857
##  9 PFAS  PFAS             1          0       
## 10 PFAS  PFAS             1          0       
## # ℹ 26 more rows
…
## # A tibble: 2 × 2
##   class        n
##   <chr>    <int>
## 1 negative  8251
## 2 positive   741

classes <- data_qsar$class

#data_qsar_all_numm <- data_qsar |>
#  select(-class)

## look at the data
data_qsar

## # A tibble: 8,992 × 1,025
##    class    f1    f2    f3    f4    f5    f6    f7    f8    f9   f10   f11   f12
##    <chr> <dbl> <dbl> <dbl> <dbl> <dbl> <dbl> <dbl> <dbl> <dbl> <dbl> <dbl> <dbl>
##  1 nega…     0     0     0     0     0     0     0     0     0     0     1     0
##  2 nega…     0     0     1     0     0     0     0     0     0     0     1     0
##  3 nega…     0     0     0     0     0     0     0     0     0     0     1     0
##  4 nega…     0     0     0     0     0     0     0     1     0     0     1     0
##  5 nega…     0     0     0     0     0     0     0     0     0     0     0     0
##  6 nega…     1     0     0     0     0     0     1     0     0     0     0     0
##  7 nega…     0     0     0     0     0     0     0     0     0     0     1     0
##  8 posi…     0     0     1     0     0     0     0     0     0     0     0     0
##  9 nega…     0     0     0     0     0     0     0     0     0     0     0     0
## 10 nega…     0     0     0     0     0     0     0     0     0     0     0     0
## # ℹ 8,982 more rows
## # ℹ 1,012 more variables: f13 <dbl>, f14 <dbl>, f15 <dbl>, f16 <dbl>,
## #   f17 <dbl>, f18 <dbl>, f19 <dbl>, f20 <dbl>, f21 <dbl>, f22 <dbl>,
## #   f23 <dbl>, f24 <dbl>, f25 <dbl>, f26 <dbl>, f27 <dbl>, f28 <dbl>,
## #   f29 <dbl>, f30 <dbl>, f31 <dbl>, f32 <dbl>, f33 <dbl>, f34 <dbl>,
## #   f35 <dbl>, f36 <dbl>, f37 <dbl>, f38 <dbl>, f39 <dbl>, f40 <dbl>,
## #   f41 <dbl>, f42 <dbl>, f43 <dbl>, f44 <dbl>, f45 <dbl>, f46 <dbl>, …
…
#install.packages("embed")
library(embed)
pca_recipe <- recipe(~., data = data_qsar)
pca_trans <- pca_recipe %>%
  # center the data
  step_center(all_numeric()) %>%
  # center the data
  step_scale(all_numeric()) %>%
  # pca on all numeric variables
  step_umap(all_numeric())

pca_estimates <- prep(pca_trans) ## this step takes a bit longer to calculate
pca_estimates$var_info

## # A tibble: 1,025 × 4
##    variable type      role      source  
##    <chr>    <list>    <chr>     <chr>   
##  1 class    <chr [3]> predictor original
##  2 f1       <chr [2]> predictor original
##  3 f2       <chr [2]> predictor original
##  4 f3       <chr [2]> predictor original
##  5 f4       <chr [2]> predictor original
##  6 f5       <chr [2]> predictor original
##  7 f6       <chr [2]> predictor original
##  8 f7       <chr [2]> predictor original
##  9 f8       <chr [2]> predictor original
## 10 f9       <chr [2]> predictor original
## # ℹ 1,015 more rows

juice(pca_estimates) 

## # A tibble: 8,992 × 3
##    class     UMAP1 UMAP2
##    <fct>     <dbl> <dbl>
##  1 negative  0.347 -3.39
##  2 negative  0.280 -3.18
##  3 negative  0.242 -3.15
##  4 negative  0.230 -3.18
##  5 negative  1.84  -1.51
##  6 negative  0.416 -2.68
##  7 negative  2.43  -3.08
##  8 positive -5.07   4.52
##  9 negative -4.98   4.41
## 10 negative -3.87   5.63
## # ℹ 8,982 more rows
…
predict(xgb_fit, qsar_test)

## # A tibble: 1,799 × 1
##    .pred_class
##    <fct>      
##  1 negative   
##  2 negative   
##  3 negative   
##  4 negative   
##  5 negative   
##  6 positive   
##  7 negative   
##  8 negative   
##  9 negative   
## 10 negative   
## # ℹ 1,789 more rows
…
bind_cols(
    predict(xgb_fit, qsar_test),
    predict(xgb_fit, qsar_test, type = "prob"),
    qsar_test[,1]
  ) -> predictions
predictions

## # A tibble: 1,799 × 4
##    .pred_class .pred_negative .pred_positive class   
##    <fct>                <dbl>          <dbl> <fct>   
##  1 negative             0.999      0.00131   negative
##  2 negative             1.00       0.000378  negative
##  3 negative             0.976      0.0241    negative
##  4 negative             0.983      0.0173    negative
##  5 negative             0.999      0.000697  negative
##  6 positive             0.489      0.511     positive
##  7 negative             0.999      0.00142   negative
##  8 negative             0.622      0.378     negative
##  9 negative             0.937      0.0634    negative
## 10 negative             1.00       0.0000561 negative
## # ℹ 1,789 more rows
…
final_fit$.metrics

## [[1]]
## # A tibble: 2 × 4
##   .metric  .estimator .estimate .config             
##   <chr>    <chr>          <dbl> <chr>               
## 1 accuracy binary         0.960 Preprocessor1_Model1
## 2 roc_auc  binary         0.902 Preprocessor1_Model1

final_fit$.predictions

## [[1]]
## # A tibble: 1,799 × 6
##    .pred_negative .pred_positive  .row .pred_class class    .config             
##             <dbl>          <dbl> <int> <fct>       <fct>    <chr>               
##  1          1.00       0.000378      6 negative    negative Preprocessor1_Model1
##  2          1.00       0.000252     19 negative    negative Preprocessor1_Model1
##  3          0.997      0.00272      23 negative    negative Preprocessor1_Model1
##  4          0.991      0.00851      24 negative    negative Preprocessor1_Model1
##  5          0.998      0.00153      34 negative    negative Preprocessor1_Model1
##  6          0.451      0.549        37 positive    positive Preprocessor1_Model1
##  7          0.999      0.000511     38 negative    negative Preprocessor1_Model1
##  8          0.589      0.411        40 negative    negative Preprocessor1_Model1
##  9          0.956      0.0437       42 negative    negative Preprocessor1_Model1
## 10          1.00       0.0000170    43 negative    negative Preprocessor1_Model1
## # ℹ 1,789 more rows
…
